{
    "source": [
        "acs.iot"
    ],
    "type": [
        "iot:ActionTrail:ApiCall"
    ],
    "data": {
        "requestParameters": {
            "Items": {
                "anl_res": [
                    {
                        "exists": false
                    }
                ],
                "total_count": [
                    {
                        "exists": true
                    }
                ]
            }
        }
    }
}
